1. Exploratory Data Analysis
…
ggsave("figs/fig_2.jpg", dpi = 300, height = 3, width = 7.5)

Five points of data summary

diff_plot |> 
  group_by(iso_system, group) |> 
  reframe(quant = quantile(diff, probs = c(0, 0.25, 0.5, 0.75, 1)),
          quant = round(quant, 2)) |> 
  mutate(prob = rep(c(0, 0.25, 0.5, 0.75, 1), times = 9))

# A tibble: 45 × 4
   iso_system                            group      quant  prob
   <chr>                                 <chr>      <dbl> <dbl>
 1 <i>δ</i><sup>13</sup>C<sub>diet</sub> All Bone    0.3   0   
 2 <i>δ</i><sup>13</sup>C<sub>diet</sub> All Bone    0.67  0.25
 3 <i>δ</i><sup>13</sup>C<sub>diet</sub> All Bone    0.9   0.5 
 4 <i>δ</i><sup>13</sup>C<sub>diet</sub> All Bone    1.22  0.75
 5 <i>δ</i><sup>13</sup>C<sub>diet</sub> All Bone    1.7   1   
 6 <i>δ</i><sup>13</sup>C<sub>diet</sub> All Tissue  0.8   0   
 7 <i>δ</i><sup>13</sup>C<sub>diet</sub> All Tissue  1.58  0.25
 8 <i>δ</i><sup>13</sup>C<sub>diet</sub> All Tissue  2.3   0.5 
 9 <i>δ</i><sup>13</sup>C<sub>diet</sub> All Tissue  2.83  0.75
10 <i>δ</i><sup>13</sup>C<sub>diet</sub> All Tissue  4.7   1   
# ℹ 35 more rows
…
